<svg xmlns="http://www.w3.org/2000/svg" width="30" height="3" viewBox="0 0 30 3">
  <rect id="Rectangle_276" data-name="Rectangle 276" width="3" height="30" rx="1.5" transform="translate(0 3) rotate(-90)" fill="#8ba3b9"/>
</svg>
