<svg xmlns="http://www.w3.org/2000/svg" width="21.173" height="21.069" viewBox="0 0 21.173 21.069">
  <g id="pencil-edit-button" transform="translate(-0.001 -1.289)">
    <path id="Path_498" data-name="Path 498" d="M13.166,4.8l4.307,4.307-10.9,10.9-4.3-4.307Zm7.575-1.039L18.821,1.845a1.906,1.906,0,0,0-2.692,0l-1.84,1.84L18.6,7.992l2.146-2.146A1.468,1.468,0,0,0,20.741,3.766ZM.013,21.761a.49.49,0,0,0,.593.583L5.4,21.18,1.1,16.873Z" transform="translate(0)" fill="#1d86e0"/>
  </g>
</svg>
