<svg xmlns="http://www.w3.org/2000/svg" width="28.572" height="28.572" viewBox="0 0 28.572 28.572">
  <path id="flogo-HexRBG-Wht-58" d="M26.993,0H1.579A1.579,1.579,0,0,0,0,1.579V26.993a1.579,1.579,0,0,0,1.579,1.579H15.263V17.544H11.529V13.2h3.714V10.025c0-3.694,2.251-5.7,5.544-5.7a31.151,31.151,0,0,1,3.348.19V8.366H21.86c-1.789,0-2.135.847-2.135,2.1v2.757H24.01l-.556,4.326H19.724V28.572h7.268a1.579,1.579,0,0,0,1.579-1.579V1.579A1.579,1.579,0,0,0,26.993,0Z" fill="#fff"/>
</svg>
