<svg xmlns="http://www.w3.org/2000/svg" width="8.945" height="5.365" viewBox="0 0 8.945 5.365">
  <g id="arrow-down-sign-to-navigate" transform="translate(0.249 -96.839)">
    <path id="Path_7" data-name="Path 7" d="M4.223,101.955a.59.59,0,0,1-.418-.173L.174,98.15a.591.591,0,1,1,.836-.836l3.213,3.213,3.213-3.213a.591.591,0,0,1,.836.836l-3.631,3.631A.59.59,0,0,1,4.223,101.955Z" transform="translate(0)" fill="#fff" stroke="#fff" stroke-width="0.5"/>
  </g>
</svg>
