<svg xmlns="http://www.w3.org/2000/svg" width="17" height="26" viewBox="0 0 17 26">
  <g id="bookmark" transform="translate(-104.144)">
    <g id="Group_680" data-name="Group 680" transform="translate(104.144)">
      <path id="Path_216" data-name="Path 216" d="M106,0V26l8.5-7.368L123,26V0Z" transform="translate(-106)" fill="#ffc400"/>
    </g>
  </g>
</svg>
