<svg xmlns="http://www.w3.org/2000/svg" width="14.086" height="10.827" viewBox="0 0 14.086 10.827">
  <g id="checked-symbol" transform="translate(0 -3.442)">
    <path id="Path_482" data-name="Path 482" d="M13.751,4.184l-.407-.406a1.152,1.152,0,0,0-1.626,0l-6.9,6.9L2.365,8.234a1.152,1.152,0,0,0-1.625,0L.335,8.64a1.153,1.153,0,0,0,0,1.625L4,13.935a1.153,1.153,0,0,0,1.625,0l8.126-8.126A1.154,1.154,0,0,0,13.751,4.184Z" transform="translate(0 0)" fill="#fff"/>
  </g>
</svg>
