<svg xmlns="http://www.w3.org/2000/svg" width="20.082" height="19.078" viewBox="0 0 20.082 19.078">
  <path id="chat" d="M10.041,1.5C4.5,1.5,0,5.554,0,10.537a8.355,8.355,0,0,0,1.6,4.888C1.4,17.613.868,19.237.1,20.007a.335.335,0,0,0,.237.571.318.318,0,0,0,.047,0,17.892,17.892,0,0,0,5.562-1.787,10.9,10.9,0,0,0,4.1.786c5.537,0,10.041-4.054,10.041-9.037S15.578,1.5,10.041,1.5Z" transform="translate(0 -1.5)" fill="#137cd6"/>
</svg>
