<svg xmlns="http://www.w3.org/2000/svg" width="1" height="20" viewBox="0 0 1 20">
  <rect id="Rectangle_61" data-name="Rectangle 61" width="20" height="1" transform="translate(1) rotate(90)" fill="#375d80" opacity="0.5"/>
</svg>
