<svg id="magnifying-glass" xmlns="http://www.w3.org/2000/svg" width="22" height="22" viewBox="0 0 22 22">
  <path id="Path_4" data-name="Path 4" d="M32.731,31.438l-5.289-5.289a9.264,9.264,0,1,0-1.3,1.3l5.289,5.284a.916.916,0,1,0,1.3-1.293ZM20.271,27.7A7.428,7.428,0,1,1,27.7,20.271,7.436,7.436,0,0,1,20.271,27.7Z" transform="translate(-11 -11)" fill="#1d86e0"/>
</svg>
