<svg xmlns="http://www.w3.org/2000/svg" width="15.614" height="9.688" viewBox="0 0 15.614 9.688">
  <g id="left-arrow" transform="translate(15.615 85.602) rotate(180)">
    <path id="Path_175" data-name="Path 175" d="M14.938,80.082H2.308l3.014-3.014a.676.676,0,1,0-.956-.956L.2,80.28a.676.676,0,0,0,0,.956L4.366,85.4a.676.676,0,1,0,.956-.956L2.308,81.434H14.938a.676.676,0,1,0,0-1.352Z" transform="translate(0 0)" fill="#1d86e0"/>
  </g>
</svg>
