<svg xmlns="http://www.w3.org/2000/svg" width="12.154" height="21.322" viewBox="0 0 12.154 21.322">
  <path id="Path_174" data-name="Path 174" d="M10.662,109.294a1.489,1.489,0,0,1-1.056-.437L.438,99.689A1.493,1.493,0,0,1,2.55,97.578l8.112,8.112,8.112-8.112a1.493,1.493,0,0,1,2.111,2.112l-9.168,9.168A1.489,1.489,0,0,1,10.662,109.294Z" transform="translate(109.295 -0.001) rotate(90)" fill="#5e7b96"/>
</svg>
