<svg id="Group_1043" data-name="Group 1043" xmlns="http://www.w3.org/2000/svg" width="13.197" height="13.197" viewBox="0 0 13.197 13.197">
  <rect id="Rectangle_34" data-name="Rectangle 34" width="17.07" height="1.593" rx="0.797" transform="translate(0 12.07) rotate(-45)" fill="#474e76"/>
  <rect id="Rectangle_35" data-name="Rectangle 35" width="17.07" height="1.593" rx="0.797" transform="translate(1.127) rotate(45)" fill="#474e76"/>
</svg>
