<svg xmlns="http://www.w3.org/2000/svg" width="14.858" height="8.47" viewBox="0 0 14.858 8.47">
  <g id="arrow-down-sign-to-navigate" transform="translate(14.86 105.61) rotate(180)">
    <path id="Path_174" data-name="Path 174" d="M7.43,105.61a1.037,1.037,0,0,1-.736-.3L.306,98.917a1.041,1.041,0,0,1,1.471-1.472L7.43,103.1l5.653-5.653a1.04,1.04,0,0,1,1.471,1.472l-6.389,6.389A1.037,1.037,0,0,1,7.43,105.61Z" transform="translate(0)" fill="#1d86e0"/>
  </g>
</svg>
