<svg xmlns="http://www.w3.org/2000/svg" width="17" height="26" viewBox="0 0 17 26">
  <g id="bookmark" transform="translate(-104.144)">
    <g id="Group_680" data-name="Group 680" transform="translate(104.144)">
      <g id="Path_216" data-name="Path 216" transform="translate(-106)" fill="none">
        <path d="M106,0V26l8.5-7.368L123,26V0Z" stroke="none"/>
        <path d="M 107.4999923706055 1.5 L 107.4999923706055 22.71457290649414 L 113.5174713134766 17.49826049804688 L 114.4999923706055 16.64656066894531 L 115.4825134277344 17.49826049804688 L 121.4999923706055 22.71457290649414 L 121.4999923706055 1.5 L 107.4999923706055 1.5 M 105.9999923706055 0 L 122.9999923706055 0 L 122.9999923706055 26 L 114.4999923706055 18.63169097900391 L 105.9999923706055 26 L 105.9999923706055 0 Z" stroke="none" fill="#fff"/>
      </g>
    </g>
  </g>
</svg>
