<svg xmlns="http://www.w3.org/2000/svg" width="9.22" height="7.087" viewBox="0 0 9.22 7.087">
  <g id="checked-symbol" transform="translate(0 -3.442)">
    <path id="Path_186" data-name="Path 186" d="M9,3.928l-.266-.266a.754.754,0,0,0-1.064,0L3.152,8.182l-1.6-1.6a.754.754,0,0,0-1.063,0l-.266.266a.755.755,0,0,0,0,1.064l2.4,2.4a.755.755,0,0,0,1.064,0L9,4.991A.756.756,0,0,0,9,3.928Z" transform="translate(0 0)" fill="#8ba3b9"/>
  </g>
</svg>
