<svg xmlns="http://www.w3.org/2000/svg" width="23.193" height="23.193" viewBox="0 0 23.193 23.193">
  <g id="Group_531" data-name="Group 531" transform="translate(-1829.188 44.197)">
    <rect id="Rectangle_34" data-name="Rectangle 34" width="30" height="2.8" rx="1.4" transform="translate(1829.188 -22.983) rotate(-45)" fill="#fff"/>
    <rect id="Rectangle_35" data-name="Rectangle 35" width="30" height="2.8" rx="1.4" transform="translate(1831.168 -44.197) rotate(45)" fill="#fff"/>
  </g>
</svg>
