<svg xmlns="http://www.w3.org/2000/svg" width="8.707" height="17.369" viewBox="0 0 8.707 17.369">
  <path id="Path_166" data-name="Path 166" d="M115.606,75.854h2.238V72.547h-2.631v.012c-3.188.113-3.842,1.905-3.9,3.788h-.007V78h-2.171v3.238h2.171v8.68h3.272v-8.68h2.68L117.777,78h-3.2V77A1.066,1.066,0,0,1,115.606,75.854Z" transform="translate(-109.136 -72.547)" fill="#fff"/>
</svg>
