<svg xmlns="http://www.w3.org/2000/svg" width="11.717" height="16.176" viewBox="0 0 11.717 16.176">
  <g id="maps-and-flags" transform="translate(-70.573)">
    <g id="Group_1345" data-name="Group 1345" transform="translate(70.573)">
      <path id="Path_364" data-name="Path 364" d="M76.432,0a5.865,5.865,0,0,0-5.859,5.858c0,4.009,5.243,9.894,5.466,10.143a.528.528,0,0,0,.785,0c.223-.249,5.466-6.134,5.466-10.143A5.865,5.865,0,0,0,76.432,0Zm0,8.806a2.948,2.948,0,1,1,2.948-2.948A2.951,2.951,0,0,1,76.432,8.806Z" transform="translate(-70.573)" fill="#52afff"/>
    </g>
  </g>
</svg>
