<svg xmlns="http://www.w3.org/2000/svg" width="5.364" height="8.945" viewBox="0 0 5.364 8.945">
  <path id="Path_365" data-name="Path 365" d="M4.223,101.955a.59.59,0,0,1-.418-.173L.174,98.15a.591.591,0,1,1,.836-.836l3.213,3.213,3.213-3.213a.591.591,0,0,1,.836.836l-3.631,3.631A.59.59,0,0,1,4.223,101.955Z" transform="translate(-96.84 8.696) rotate(-90)" fill="#587896" stroke="#587896" stroke-width="0.5"/>
</svg>
