<svg xmlns="http://www.w3.org/2000/svg" width="15.945" height="9.893" viewBox="0 0 15.945 9.893">
  <g id="left-arrow" transform="translate(15.945 85.807) rotate(180)">
    <path id="Path_175" data-name="Path 175" d="M15.255,80.17H2.357l3.078-3.078a.69.69,0,1,0-.976-.976L.2,80.372a.69.69,0,0,0,0,.976L4.458,85.6a.69.69,0,1,0,.976-.976L2.357,81.551h12.9a.69.69,0,1,0,0-1.38Z" transform="translate(0 0)" fill="#fff"/>
  </g>
</svg>
