<svg xmlns="http://www.w3.org/2000/svg" width="21.688" height="29.943" viewBox="0 0 21.688 29.943">
  <path id="Path_221" data-name="Path 221" d="M81.417,0A10.857,10.857,0,0,0,70.573,10.844c0,7.421,9.7,18.315,10.118,18.775a.977.977,0,0,0,1.453,0c.413-.46,10.118-11.354,10.118-18.775A10.857,10.857,0,0,0,81.417,0Zm0,16.3a5.456,5.456,0,1,1,5.456-5.456A5.462,5.462,0,0,1,81.417,16.3Z" transform="translate(-70.573)" fill="#1d86e0"/>
</svg>
