<svg xmlns="http://www.w3.org/2000/svg" width="22" height="13.649" viewBox="0 0 22 13.649">
  <path id="Path_175" data-name="Path 175" d="M21.048,81.786H3.251L7.5,77.54a.952.952,0,0,0-1.347-1.347L.279,82.065a.952.952,0,0,0,0,1.347l5.872,5.873A.952.952,0,0,0,7.5,87.938L3.251,83.691h17.8a.952.952,0,1,0,0-1.9Z" transform="translate(22 89.563) rotate(180)" fill="#1d86e0"/>
</svg>
