<svg xmlns="http://www.w3.org/2000/svg" width="10.675" height="14.442" viewBox="0 0 10.675 14.442">
  <g id="bookmark" transform="translate(-104.144)">
    <g id="Group_680" data-name="Group 680" transform="translate(104.144)">
      <path id="Path_216" data-name="Path 216" d="M106,0V14.442l5.337-4.093,5.337,4.093V0Z" transform="translate(-106)" fill="#52afff"/>
    </g>
  </g>
</svg>
